{
	"credit": "Made with Blockbench",
	"textures": {
		"1": "item/lightmetal"
	},
	"elements": [
		{
			"name": "magazine1",
			"from": [7.04998, 0.71088, 9.49286],
			"to": [8.44998, 2.86088, 11.51786],
			"rotation": {"angle": 22.5, "axis": "x", "origin": [14.99998, 11.41088, 20.11062]},
			"faces": {
				"north": {"uv": [0, 0, 1.4, 2.15], "texture": "#1"},
				"east": {"uv": [0, 0, 2.025, 2.15], "texture": "#1"},
				"south": {"uv": [0, 0, 1.4, 2.15], "texture": "#1"},
				"west": {"uv": [0, 0, 2.025, 2.15], "texture": "#1"},
				"up": {"uv": [0, 0, 1.4, 2.025], "texture": "#1"},
				"down": {"uv": [0, 0, 1.4, 2.025], "texture": "#1"}
			}
		},
		{
			"name": "magazine2",
			"from": [7.05, 6.8, 6.9],
			"to": [8.45, 9.5, 8.9],
			"faces": {
				"north": {"uv": [0, 0, 1.4, 0.75], "texture": "#1"},
				"east": {"uv": [0, 0, 0.2, 0.75], "texture": "#1"},
				"south": {"uv": [0, 0, 1.4, 0.75], "texture": "#1"},
				"west": {"uv": [0, 0, 0.2, 0.75], "texture": "#1"},
				"up": {"uv": [0, 0, 1.4, 0.2], "texture": "#1"},
				"down": {"uv": [0, 0, 1.4, 0.2], "texture": "#1"}
			}
		}
	],
	"display": {
		"ground": {
			"rotation": [0, 0, 90],
			"translation": [0, -3, 0]
		},
		"gui": {
			"rotation": [0, -90, 0],
			"translation": [-0.75, 2.5, 0],
			"scale": [3, 3, 3]
		},
		"fixed": {
			"rotation": [90, 90, -90],
			"translation": [0.75, 1.5, -1.5],
			"scale": [2, 2, 2]
		}
	},
	"groups": [
		{
			"name": "magazine",
			"children": [0, 1]
		}
	]
}