{
	"credit": "Made with Blockbench",
    "parent": "item/gun/ar/m16a4/m16a4",
	"textures": {
		"0": "item/metal",
		"1": "item/lightmetal",
		"2": "item/darkmetal",
		"3": "item/metal_alt",
		"particle": "item/metal"
	},
	"display": {
		"thirdperson_righthand": {
			"rotation": [140, 0, 0],
			"translation": [-2, 0.5, 0.25]
		},
		"thirdperson_lefthand": {
			"rotation": [140, 0, 0],
			"translation": [-2, 0.5, 0.25]
		},
		"firstperson_righthand": {
			"rotation": [70, 0, 0]
		},
		"firstperson_lefthand": {
			"rotation": [70, 0, 0]
		},
		"ground": {
			"rotation": [0, 0, 90],
			"translation": [0, -3, 0]
		},
		"gui": {
			"rotation": [90, -45, 90],
			"translation": [-0.5, -2, 0],
			"scale": [0.7, 0.7, 0.7]
		},
		"fixed": {
			"rotation": [90, 90, -90],
			"translation": [0.75, -2.25, -1.5],
			"scale": [2, 2, 2]
		}
	}
}
