{
	"credit": "Made with Blockbench",
    "parent": "item/gun/smg/mp7/mp7",
	"textures": {
		"0": "item/darkmetal",
		"1": "item/lightmetal",
		"2": "item/metal",
		"3": "item/metal_alt",
		"particle": "item/darkmetal"
	},
	"display": {
		"thirdperson_righthand": {
			"rotation": [140, 0, 0],
			"translation": [-2.25, 1.75, 4.75]
		},
		"thirdperson_lefthand": {
			"rotation": [140, 0, 0],
			"translation": [-2.25, 1.75, 4.75]
		},
		"firstperson_righthand": {
			"rotation": [70, 0, 0],
			"translation": [1.5, 2.25, 0]
		},
		"firstperson_lefthand": {
			"rotation": [70, 0, 0],
			"translation": [1.5, 2.25, 0]
		},
		"ground": {
			"rotation": [0, 0, 90],
			"translation": [-3.5, -3.5, 0]
		},
		"gui": {
			"rotation": [90, -45, 90],
			"translation": [0.5, 1.75, 0]
		},
		"fixed": {
			"rotation": [0, 90, 0],
			"translation": [-1.5, 2.5, -1.25],
			"scale": [1.5, 1.5, 1.5]
		}
	}
}
